lavadora/lavadora/simulation/qsim/lavadora.msim.vcd
$comment
	File created using the following command:
		vcd file lavadora.msim.vcd -direction
$end
$date
	Thu Oct 24 16:51:25 2024
$end
$version
	ModelSim Version 10.1d
$end
$timescale
	1ps
$end
$scope module lavadora_vlg_vec_tst $end
$var reg 1 ! cerrado $end
$var reg 1 " encendida $end
$var reg 1 # lleno $end
$var reg 1 $ reloj $end
$var wire 1 % alarma $end
$var wire 1 & fin $end
$var wire 1 ' giro_bcd [6] $end
$var wire 1 ( giro_bcd [5] $end
$var wire 1 ) giro_bcd [4] $end
$var wire 1 * giro_bcd [3] $end
$var wire 1 + giro_bcd [2] $end
$var wire 1 , giro_bcd [1] $end
$var wire 1 - giro_bcd [0] $end
$var wire 1 . leds $end
$var wire 1 / llenado $end
$var wire 1 0 tiempo_faltante1 [6] $end
$var wire 1 1 tiempo_faltante1 [5] $end
$var wire 1 2 tiempo_faltante1 [4] $end
$var wire 1 3 tiempo_faltante1 [3] $end
$var wire 1 4 tiempo_faltante1 [2] $end
$var wire 1 5 tiempo_faltante1 [1] $end
$var wire 1 6 tiempo_faltante1 [0] $end
$var wire 1 7 tiempo_faltante2 [6] $end
$var wire 1 8 tiempo_faltante2 [5] $end
$var wire 1 9 tiempo_faltante2 [4] $end
$var wire 1 : tiempo_faltante2 [3] $end
$var wire 1 ; tiempo_faltante2 [2] $end
$var wire 1 < tiempo_faltante2 [1] $end
$var wire 1 = tiempo_faltante2 [0] $end
$var wire 1 > vaciado $end
$var wire 1 ? velocidad_bcd [6] $end
$var wire 1 @ velocidad_bcd [5] $end
$var wire 1 A velocidad_bcd [4] $end
$var wire 1 B velocidad_bcd [3] $end
$var wire 1 C velocidad_bcd [2] $end
$var wire 1 D velocidad_bcd [1] $end
$var wire 1 E velocidad_bcd [0] $end
$var wire 1 F sampler $end
$scope module i1 $end
$var wire 1 G gnd $end
$var wire 1 H vcc $end
$var wire 1 I unknown $end
$var tri1 1 J devclrn $end
$var tri1 1 K devpor $end
$var tri1 1 L devoe $end
$var wire 1 M reloj~input_o $end
$var wire 1 N llenado~output_o $end
$var wire 1 O vaciado~output_o $end
$var wire 1 P tiempo_faltante1[0]~output_o $end
$var wire 1 Q tiempo_faltante1[1]~output_o $end
$var wire 1 R tiempo_faltante1[2]~output_o $end
$var wire 1 S tiempo_faltante1[3]~output_o $end
$var wire 1 T tiempo_faltante1[4]~output_o $end
$var wire 1 U tiempo_faltante1[5]~output_o $end
$var wire 1 V tiempo_faltante1[6]~output_o $end
$var wire 1 W tiempo_faltante2[0]~output_o $end
$var wire 1 X tiempo_faltante2[1]~output_o $end
$var wire 1 Y tiempo_faltante2[2]~output_o $end
$var wire 1 Z tiempo_faltante2[3]~output_o $end
$var wire 1 [ tiempo_faltante2[4]~output_o $end
$var wire 1 \ tiempo_faltante2[5]~output_o $end
$var wire 1 ] tiempo_faltante2[6]~output_o $end
$var wire 1 ^ giro_bcd[0]~output_o $end
$var wire 1 _ giro_bcd[1]~output_o $end
$var wire 1 ` giro_bcd[2]~output_o $end
$var wire 1 a giro_bcd[3]~output_o $end
$var wire 1 b giro_bcd[4]~output_o $end
$var wire 1 c giro_bcd[5]~output_o $end
$var wire 1 d giro_bcd[6]~output_o $end
$var wire 1 e velocidad_bcd[0]~output_o $end
$var wire 1 f velocidad_bcd[1]~output_o $end
$var wire 1 g velocidad_bcd[2]~output_o $end
$var wire 1 h velocidad_bcd[3]~output_o $end
$var wire 1 i velocidad_bcd[4]~output_o $end
$var wire 1 j velocidad_bcd[5]~output_o $end
$var wire 1 k velocidad_bcd[6]~output_o $end
$var wire 1 l alarma~output_o $end
$var wire 1 m fin~output_o $end
$var wire 1 n leds~output_o $end
$var wire 1 o encendida~input_o $end
$var wire 1 p cerrado~input_o $end
$var wire 1 q lleno~input_o $end
$var wire 1 r U0|Mux0~0_combout $end
$upscope $end
$upscope $end
$enddefinitions $end
#0
$dumpvars
1!
1"
1#
0$
0%
0&
1-
1,
1+
1*
1)
1(
1'
0.
1/
16
05
04
03
02
01
00
1=
0<
0;
0:
09
08
07
0>
1E
1D
1C
1B
1A
1@
1?
xF
0G
1H
xI
1J
1K
1L
0M
1N
0O
1P
0Q
0R
0S
0T
0U
0V
1W
0X
0Y
0Z
0[
0\
0]
1^
1_
1`
1a
1b
1c
1d
1e
1f
1g
1h
1i
1j
1k
0l
0m
0n
1o
1p
1q
1r
$end
#5000
1$
1M
0F
#10000
0$
0M
1F
#15000
1$
1M
0F
#20000
0$
0M
1F
#25000
1$
1M
0F
#30000
0$
0M
1F
#35000
1$
1M
0F
#40000
0$
0M
1F
#45000
1$
1M
0F
#50000
0$
0M
1F
#55000
1$
1M
0F
#60000
0$
0M
1F
#65000
1$
1M
0F
#70000
0$
0M
1F
#75000
1$
1M
0F
#80000
0$
0M
1F
#85000
1$
1M
0F
#90000
0$
0M
1F
#95000
1$
1M
0F
#100000
0$
0M
1F
#105000
1$
1M
0F
#110000
0$
0M
1F
#115000
1$
1M
0F
#120000
0$
0M
1F
#125000
1$
1M
0F
#130000
0$
0M
1F
#135000
1$
1M
0F
#140000
0$
0M
1F
#145000
1$
1M
0F
#150000
0$
0M
1F
#155000
1$
1M
0F
#160000
0$
0M
1F
#165000
1$
1M
0F
#170000
0$
0M
1F
#175000
1$
1M
0F
#180000
0$
0M
1F
#185000
1$
1M
0F
#190000
0$
0M
1F
#195000
1$
1M
0F
#200000
0$
0M
1F
#205000
1$
1M
0F
#210000
0$
0M
1F
#215000
1$
1M
0F
#220000
0$
0M
1F
#225000
1$
1M
0F
#230000
0$
0M
1F
#235000
1$
1M
0F
#240000
0$
0M
1F
#245000
1$
1M
0F
#250000
0$
0M
1F
#255000
1$
1M
0F
#260000
0$
0M
1F
#265000
1$
1M
0F
#270000
0$
0M
1F
#275000
1$
1M
0F
#280000
0$
0M
1F
#285000
1$
1M
0F
#290000
0$
0M
1F
#295000
1$
1M
0F
#300000
0$
0M
1F
#305000
1$
1M
0F
#310000
0$
0M
1F
#315000
1$
1M
0F
#320000
0$
0M
1F
#325000
1$
1M
0F
#330000
0$
0M
1F
#335000
1$
1M
0F
#340000
0$
0M
1F
#345000
1$
1M
0F
#350000
0$
0M
1F
#355000
1$
1M
0F
#360000
0$
0M
1F
#365000
1$
1M
0F
#370000
0$
0M
1F
#375000
1$
1M
0F
#380000
0$
0M
1F
#385000
1$
1M
0F
#390000
0$
0M
1F
#395000
1$
1M
0F
#400000
0$
0M
1F
#405000
1$
1M
0F
#410000
0$
0M
1F
#415000
1$
1M
0F
#420000
0$
0M
1F
#425000
1$
1M
0F
#430000
0$
0M
1F
#435000
1$
1M
0F
#440000
0$
0M
1F
#445000
1$
1M
0F
#450000
0$
0M
1F
#455000
1$
1M
0F
#460000
0$
0M
1F
#465000
1$
1M
0F
#470000
0$
0M
1F
#475000
1$
1M
0F
#480000
0$
0M
1F
#485000
1$
1M
0F
#490000
0$
0M
1F
#495000
1$
1M
0F
#500000
0$
0M
1F
#505000
1$
1M
0F
#510000
0$
0M
1F
#515000
1$
1M
0F
#520000
0$
0M
1F
#525000
1$
1M
0F
#530000
0$
0M
1F
#535000
1$
1M
0F
#540000
0$
0M
1F
#545000
1$
1M
0F
#550000
0$
0M
1F
#555000
1$
1M
0F
#560000
0$
0M
1F
#565000
1$
1M
0F
#570000
0$
0M
1F
#575000
1$
1M
0F
#580000
0$
0M
1F
#585000
1$
1M
0F
#590000
0$
0M
1F
#595000
1$
1M
0F
#600000
0$
0M
1F
#605000
1$
1M
0F
#610000
0$
0M
1F
#615000
1$
1M
0F
#620000
0$
0M
1F
#625000
1$
1M
0F
#630000
0$
0M
1F
#635000
1$
1M
0F
#640000
0$
0M
1F
#645000
1$
1M
0F
#650000
0$
0M
1F
#655000
1$
1M
0F
#660000
0$
0M
1F
#665000
1$
1M
0F
#670000
0$
0M
1F
#675000
1$
1M
0F
#680000
0$
0M
1F
#685000
1$
1M
0F
#690000
0$
0M
1F
#695000
1$
1M
0F
#700000
0$
0M
1F
#705000
1$
1M
0F
#710000
0$
0M
1F
#715000
1$
1M
0F
#720000
0$
0M
1F
#725000
1$
1M
0F
#730000
0$
0M
1F
#735000
1$
1M
0F
#740000
0$
0M
1F
#745000
1$
1M
0F
#750000
0$
0M
1F
#755000
1$
1M
0F
#760000
0$
0M
1F
#765000
1$
1M
0F
#770000
0$
0M
1F
#775000
1$
1M
0F
#780000
0$
0M
1F
#785000
1$
1M
0F
#790000
0$
0M
1F
#795000
1$
1M
0F
#800000
0$
0M
1F
#805000
1$
1M
0F
#810000
0$
0M
1F
#815000
1$
1M
0F
#820000
0$
0M
1F
#825000
1$
1M
0F
#830000
0$
0M
1F
#835000
1$
1M
0F
#840000
0$
0M
1F
#845000
1$
1M
0F
#850000
0$
0M
1F
#855000
1$
1M
0F
#860000
0$
0M
1F
#865000
1$
1M
0F
#870000
0$
0M
1F
#875000
1$
1M
0F
#880000
0$
0M
1F
#885000
1$
1M
0F
#890000
0$
0M
1F
#895000
1$
1M
0F
#900000
0$
0M
1F
#905000
1$
1M
0F
#910000
0$
0M
1F
#915000
1$
1M
0F
#920000
0$
0M
1F
#925000
1$
1M
0F
#930000
0$
0M
1F
#935000
1$
1M
0F
#940000
0$
0M
1F
#945000
1$
1M
0F
#950000
0$
0M
1F
#955000
1$
1M
0F
#960000
0$
0M
1F
#965000
1$
1M
0F
#970000
0$
0M
1F
#975000
1$
1M
0F
#980000
0$
0M
1F
#985000
1$
1M
0F
#990000
0$
0M
1F
#995000
1$
1M
0F
